{
  "success": true,
  "data": {
    "stats": {
      "todaysRevenue": 3500000.0,
      "successfulTodayCount": 12,
      "failedTodayCount": 2
    },
    "transactions": [
      {
        "id": "a1b2c3d4-e5f6-7890-1234-567890abcdef",
        "orderId": "x9y8z7w6-v5u4-t3s2-r1q0-p0o9n8m7l6k5",
        "orderNumber": "ORD-2025-001",
        "gatewayTransactionId": "VNPAY123456789",
        "createdAt": "2025-11-08T10:30:00Z",
        "gateway": "VNPAY",
        "amount": 1500000,
        "status": "SUCCESS"
      },
      {
        "id": "b2c3d4e5-f6g7-8901-2345-678901bcdefg",
        "orderId": "y8z7w6v5-u4t3-s2r1-q0p0-o9n8m7l6k5j4",
        "orderNumber": "ORD-2025-002",
        "gatewayTransactionId": "MOMO987654321",
        "createdAt": "2025-11-08T11:15:00Z",
        "gateway": "MOMO",
        "amount": 2000000,
        "status": "SUCCESS"
      },
      {
        "id": "c3d4e5f6-g7h8-9012-3456-789012cdefgh",
        "orderId": "z7w6v5u4-t3s2-r1q0-p0o9-n8m7l6k5j4i3",
        "orderNumber": "ORD-2025-003",
        "gatewayTransactionId": null,
        "createdAt": "2025-11-08T12:00:00Z",
        "gateway": "COD",
        "amount": 500000,
        "status": "PENDING"
      },
      {
        "id": "d4e5f6g7-h8i9-0123-4567-890123defghi",
        "orderId": "w6v5u4t3-s2r1-q0p0-o9n8-m7l6k5j4i3h2",
        "orderNumber": "ORD-2025-004",
        "gatewayTransactionId": "VNPAY111222333",
        "createdAt": "2025-11-08T13:45:00Z",
        "gateway": "VNPAY",
        "amount": 3500000,
        "status": "FAILED"
      }
    ],
    "pagination": {
      "currentPage": 1,
      "pageSize": 20,
      "totalRecords": 50,
      "totalPages": 3
    }
  }
}
